{
    "entrypoint": "index.html",
    "shell": "src/offshore-app/offshore-app.html",
    "sources": [
        "src/offshore-app/**/*",
        "src/visualization/js/**/*",
        "src/visualization/models/**/*",
        "src/visualization/images/**/*",
        "images/**/*",
        "data/**/*"
    ],
    "extraDependencies": [
        "manifest.json",
        "bower_components/webcomponentsjs/**/*",
        "bower_components/material-design-iconic-font/dist/fonts/*",
        "bower_components/components-font-awesome/fonts/*"
    ],
    "lint": {
        "rules": [
            "polymer-2"
        ]
    },
    "builds": [{
      "bundle": true,
      "js": {"compile": false, "minify": false},
      "css": {"minify": false},
      "html": {"minify": false}
    }],
    "commented_out_builds": [
        {
            "preset": "es5-bundled"
        },
        {
            "preset": "es6-bundled"
        },
        {
            "preset": "es6-unbundled"
        }
    ]
}