# Blender MTL File: 'None'
# Material Count: 2

newmtl Material
Ns 749.019608
Ka 0.392157 0.392157 0.392157
Kd 1.000000 1.000000 1.000000
Ks 1.000000 1.000000 1.000000
Ke 0.000000 0.000000 0.000000
Ni 1.000000
d 1.000000
illum 2

newmtl None
Ns 100.000000
Ka 0.200000 0.200000 0.200000
Kd 0.592157 0.886275 1.000000
Ks 0.149020 0.149020 0.149020
Ke 0.000000 0.000000 0.000000
Ni 1.000000
d 1.000000
illum 2
