# Blender v2.79 (sub 0) OBJ File: ''
# www.blender.org
mtllib untitled.mtl
o Cube.001
v -0.668134 0.405396 1.156481
v -0.668134 1.476793 1.156481
v -0.668134 0.405396 0.085083
v -0.668134 1.476793 0.085083
v 0.403263 0.405396 1.156481
v 0.403263 1.476793 1.156481
v 0.403263 0.405396 0.085083
v 0.403263 1.476793 0.085083
vn -1.0000 0.0000 0.0000
vn 0.0000 0.0000 -1.0000
vn 1.0000 0.0000 0.0000
vn 0.0000 0.0000 1.0000
vn 0.0000 -1.0000 0.0000
vn 0.0000 1.0000 0.0000
usemtl None
s off
f 1//1 2//1 4//1 3//1
f 3//2 4//2 8//2 7//2
f 7//3 8//3 6//3 5//3
f 5//4 6//4 2//4 1//4
f 3//5 7//5 5//5 1//5
f 8//6 4//6 2//6 6//6
o Cube
v 0.817508 -1.008555 -0.364186
v 0.817508 -1.008555 1.635813
v -1.182492 -1.008555 1.635813
v -1.182492 -1.008555 -0.364187
v 0.817508 0.991445 -0.364186
v 0.817507 0.991445 1.635814
v -1.182492 0.991445 1.635813
v -1.182492 0.991445 -0.364187
vn 0.0000 -1.0000 0.0000
vn 0.0000 1.0000 0.0000
vn 1.0000 0.0000 0.0000
vn -0.0000 -0.0000 1.0000
vn -1.0000 -0.0000 -0.0000
vn 0.0000 0.0000 -1.0000
usemtl Material
s off
f 9//7 10//7 11//7 12//7
f 13//8 16//8 15//8 14//8
f 9//9 13//9 14//9 10//9
f 10//10 14//10 15//10 11//10
f 11//11 15//11 16//11 12//11
f 13//12 9//12 12//12 16//12
